E:\FPT\GitLab\ProjectTaToOr_S22\tatoor\Official Project\G4-TaToOr-SE1504-SP22 Official\node_modules\summernote\built\summernote.js
E:\FPT\GitLab\ProjectTaToOr_S22\tatoor\Official Project\G4-TaToOr-SE1504-SP22 Official\node_modules\summernote\built\summernote.js.map
E:\FPT\GitLab\ProjectTaToOr_S22\tatoor\Official Project\G4-TaToOr-SE1504-SP22 Official\node_modules\summernote\built\base\Context.js
E:\FPT\GitLab\ProjectTaToOr_S22\tatoor\Official Project\G4-TaToOr-SE1504-SP22 Official\node_modules\summernote\built\base\Context.js.map
E:\FPT\GitLab\ProjectTaToOr_S22\tatoor\Official Project\G4-TaToOr-SE1504-SP22 Official\node_modules\summernote\built\base\renderer.js
E:\FPT\GitLab\ProjectTaToOr_S22\tatoor\Official Project\G4-TaToOr-SE1504-SP22 Official\node_modules\summernote\built\base\renderer.js.map
E:\FPT\GitLab\ProjectTaToOr_S22\tatoor\Official Project\G4-TaToOr-SE1504-SP22 Official\node_modules\summernote\built\base\summernote-en-US.js
E:\FPT\GitLab\ProjectTaToOr_S22\tatoor\Official Project\G4-TaToOr-SE1504-SP22 Official\node_modules\summernote\built\base\summernote-en-US.js.map
E:\FPT\GitLab\ProjectTaToOr_S22\tatoor\Official Project\G4-TaToOr-SE1504-SP22 Official\node_modules\summernote\built\base\core\async.js
E:\FPT\GitLab\ProjectTaToOr_S22\tatoor\Official Project\G4-TaToOr-SE1504-SP22 Official\node_modules\summernote\built\base\core\async.js.map
E:\FPT\GitLab\ProjectTaToOr_S22\tatoor\Official Project\G4-TaToOr-SE1504-SP22 Official\node_modules\summernote\built\base\core\dom.js
E:\FPT\GitLab\ProjectTaToOr_S22\tatoor\Official Project\G4-TaToOr-SE1504-SP22 Official\node_modules\summernote\built\base\core\dom.js.map
E:\FPT\GitLab\ProjectTaToOr_S22\tatoor\Official Project\G4-TaToOr-SE1504-SP22 Official\node_modules\summernote\built\base\core\env.js
E:\FPT\GitLab\ProjectTaToOr_S22\tatoor\Official Project\G4-TaToOr-SE1504-SP22 Official\node_modules\summernote\built\base\core\env.js.map
E:\FPT\GitLab\ProjectTaToOr_S22\tatoor\Official Project\G4-TaToOr-SE1504-SP22 Official\node_modules\summernote\built\base\core\func.js
E:\FPT\GitLab\ProjectTaToOr_S22\tatoor\Official Project\G4-TaToOr-SE1504-SP22 Official\node_modules\summernote\built\base\core\func.js.map
E:\FPT\GitLab\ProjectTaToOr_S22\tatoor\Official Project\G4-TaToOr-SE1504-SP22 Official\node_modules\summernote\built\base\core\key.js
E:\FPT\GitLab\ProjectTaToOr_S22\tatoor\Official Project\G4-TaToOr-SE1504-SP22 Official\node_modules\summernote\built\base\core\key.js.map
E:\FPT\GitLab\ProjectTaToOr_S22\tatoor\Official Project\G4-TaToOr-SE1504-SP22 Official\node_modules\summernote\built\base\core\lists.js
E:\FPT\GitLab\ProjectTaToOr_S22\tatoor\Official Project\G4-TaToOr-SE1504-SP22 Official\node_modules\summernote\built\base\core\lists.js.map
E:\FPT\GitLab\ProjectTaToOr_S22\tatoor\Official Project\G4-TaToOr-SE1504-SP22 Official\node_modules\summernote\built\base\core\range.js
E:\FPT\GitLab\ProjectTaToOr_S22\tatoor\Official Project\G4-TaToOr-SE1504-SP22 Official\node_modules\summernote\built\base\core\range.js.map
E:\FPT\GitLab\ProjectTaToOr_S22\tatoor\Official Project\G4-TaToOr-SE1504-SP22 Official\node_modules\summernote\built\base\editing\Bullet.js
E:\FPT\GitLab\ProjectTaToOr_S22\tatoor\Official Project\G4-TaToOr-SE1504-SP22 Official\node_modules\summernote\built\base\editing\Bullet.js.map
E:\FPT\GitLab\ProjectTaToOr_S22\tatoor\Official Project\G4-TaToOr-SE1504-SP22 Official\node_modules\summernote\built\base\editing\History.js
E:\FPT\GitLab\ProjectTaToOr_S22\tatoor\Official Project\G4-TaToOr-SE1504-SP22 Official\node_modules\summernote\built\base\editing\History.js.map
E:\FPT\GitLab\ProjectTaToOr_S22\tatoor\Official Project\G4-TaToOr-SE1504-SP22 Official\node_modules\summernote\built\base\editing\Style.js
E:\FPT\GitLab\ProjectTaToOr_S22\tatoor\Official Project\G4-TaToOr-SE1504-SP22 Official\node_modules\summernote\built\base\editing\Style.js.map
E:\FPT\GitLab\ProjectTaToOr_S22\tatoor\Official Project\G4-TaToOr-SE1504-SP22 Official\node_modules\summernote\built\base\editing\Table.js
E:\FPT\GitLab\ProjectTaToOr_S22\tatoor\Official Project\G4-TaToOr-SE1504-SP22 Official\node_modules\summernote\built\base\editing\Table.js.map
E:\FPT\GitLab\ProjectTaToOr_S22\tatoor\Official Project\G4-TaToOr-SE1504-SP22 Official\node_modules\summernote\built\base\editing\Typing.js
E:\FPT\GitLab\ProjectTaToOr_S22\tatoor\Official Project\G4-TaToOr-SE1504-SP22 Official\node_modules\summernote\built\base\editing\Typing.js.map
E:\FPT\GitLab\ProjectTaToOr_S22\tatoor\Official Project\G4-TaToOr-SE1504-SP22 Official\node_modules\summernote\built\base\module\AirPopover.js
E:\FPT\GitLab\ProjectTaToOr_S22\tatoor\Official Project\G4-TaToOr-SE1504-SP22 Official\node_modules\summernote\built\base\module\AirPopover.js.map
E:\FPT\GitLab\ProjectTaToOr_S22\tatoor\Official Project\G4-TaToOr-SE1504-SP22 Official\node_modules\summernote\built\base\module\AutoLink.js
E:\FPT\GitLab\ProjectTaToOr_S22\tatoor\Official Project\G4-TaToOr-SE1504-SP22 Official\node_modules\summernote\built\base\module\AutoLink.js.map
E:\FPT\GitLab\ProjectTaToOr_S22\tatoor\Official Project\G4-TaToOr-SE1504-SP22 Official\node_modules\summernote\built\base\module\AutoSync.js
E:\FPT\GitLab\ProjectTaToOr_S22\tatoor\Official Project\G4-TaToOr-SE1504-SP22 Official\node_modules\summernote\built\base\module\AutoSync.js.map
E:\FPT\GitLab\ProjectTaToOr_S22\tatoor\Official Project\G4-TaToOr-SE1504-SP22 Official\node_modules\summernote\built\base\module\Buttons.js
E:\FPT\GitLab\ProjectTaToOr_S22\tatoor\Official Project\G4-TaToOr-SE1504-SP22 Official\node_modules\summernote\built\base\module\Buttons.js.map
E:\FPT\GitLab\ProjectTaToOr_S22\tatoor\Official Project\G4-TaToOr-SE1504-SP22 Official\node_modules\summernote\built\base\module\Clipboard.js
E:\FPT\GitLab\ProjectTaToOr_S22\tatoor\Official Project\G4-TaToOr-SE1504-SP22 Official\node_modules\summernote\built\base\module\Clipboard.js.map
E:\FPT\GitLab\ProjectTaToOr_S22\tatoor\Official Project\G4-TaToOr-SE1504-SP22 Official\node_modules\summernote\built\base\module\Codeview.js
E:\FPT\GitLab\ProjectTaToOr_S22\tatoor\Official Project\G4-TaToOr-SE1504-SP22 Official\node_modules\summernote\built\base\module\Codeview.js.map
E:\FPT\GitLab\ProjectTaToOr_S22\tatoor\Official Project\G4-TaToOr-SE1504-SP22 Official\node_modules\summernote\built\base\module\Dropzone.js
E:\FPT\GitLab\ProjectTaToOr_S22\tatoor\Official Project\G4-TaToOr-SE1504-SP22 Official\node_modules\summernote\built\base\module\Dropzone.js.map
E:\FPT\GitLab\ProjectTaToOr_S22\tatoor\Official Project\G4-TaToOr-SE1504-SP22 Official\node_modules\summernote\built\base\module\Editor.js
E:\FPT\GitLab\ProjectTaToOr_S22\tatoor\Official Project\G4-TaToOr-SE1504-SP22 Official\node_modules\summernote\built\base\module\Editor.js.map
E:\FPT\GitLab\ProjectTaToOr_S22\tatoor\Official Project\G4-TaToOr-SE1504-SP22 Official\node_modules\summernote\built\base\module\Fullscreen.js
E:\FPT\GitLab\ProjectTaToOr_S22\tatoor\Official Project\G4-TaToOr-SE1504-SP22 Official\node_modules\summernote\built\base\module\Fullscreen.js.map
E:\FPT\GitLab\ProjectTaToOr_S22\tatoor\Official Project\G4-TaToOr-SE1504-SP22 Official\node_modules\summernote\built\base\module\Handle.js
E:\FPT\GitLab\ProjectTaToOr_S22\tatoor\Official Project\G4-TaToOr-SE1504-SP22 Official\node_modules\summernote\built\base\module\Handle.js.map
E:\FPT\GitLab\ProjectTaToOr_S22\tatoor\Official Project\G4-TaToOr-SE1504-SP22 Official\node_modules\summernote\built\base\module\HelpDialog.js
E:\FPT\GitLab\ProjectTaToOr_S22\tatoor\Official Project\G4-TaToOr-SE1504-SP22 Official\node_modules\summernote\built\base\module\HelpDialog.js.map
E:\FPT\GitLab\ProjectTaToOr_S22\tatoor\Official Project\G4-TaToOr-SE1504-SP22 Official\node_modules\summernote\built\base\module\HintPopover.js
E:\FPT\GitLab\ProjectTaToOr_S22\tatoor\Official Project\G4-TaToOr-SE1504-SP22 Official\node_modules\summernote\built\base\module\HintPopover.js.map
E:\FPT\GitLab\ProjectTaToOr_S22\tatoor\Official Project\G4-TaToOr-SE1504-SP22 Official\node_modules\summernote\built\base\module\ImageDialog.js
E:\FPT\GitLab\ProjectTaToOr_S22\tatoor\Official Project\G4-TaToOr-SE1504-SP22 Official\node_modules\summernote\built\base\module\ImageDialog.js.map
E:\FPT\GitLab\ProjectTaToOr_S22\tatoor\Official Project\G4-TaToOr-SE1504-SP22 Official\node_modules\summernote\built\base\module\ImagePopover.js
E:\FPT\GitLab\ProjectTaToOr_S22\tatoor\Official Project\G4-TaToOr-SE1504-SP22 Official\node_modules\summernote\built\base\module\ImagePopover.js.map
E:\FPT\GitLab\ProjectTaToOr_S22\tatoor\Official Project\G4-TaToOr-SE1504-SP22 Official\node_modules\summernote\built\base\module\LinkDialog.js
E:\FPT\GitLab\ProjectTaToOr_S22\tatoor\Official Project\G4-TaToOr-SE1504-SP22 Official\node_modules\summernote\built\base\module\LinkDialog.js.map
E:\FPT\GitLab\ProjectTaToOr_S22\tatoor\Official Project\G4-TaToOr-SE1504-SP22 Official\node_modules\summernote\built\base\module\LinkPopover.js
E:\FPT\GitLab\ProjectTaToOr_S22\tatoor\Official Project\G4-TaToOr-SE1504-SP22 Official\node_modules\summernote\built\base\module\LinkPopover.js.map
E:\FPT\GitLab\ProjectTaToOr_S22\tatoor\Official Project\G4-TaToOr-SE1504-SP22 Official\node_modules\summernote\built\base\module\Placeholder.js
E:\FPT\GitLab\ProjectTaToOr_S22\tatoor\Official Project\G4-TaToOr-SE1504-SP22 Official\node_modules\summernote\built\base\module\Placeholder.js.map
E:\FPT\GitLab\ProjectTaToOr_S22\tatoor\Official Project\G4-TaToOr-SE1504-SP22 Official\node_modules\summernote\built\base\module\Statusbar.js
E:\FPT\GitLab\ProjectTaToOr_S22\tatoor\Official Project\G4-TaToOr-SE1504-SP22 Official\node_modules\summernote\built\base\module\Statusbar.js.map
E:\FPT\GitLab\ProjectTaToOr_S22\tatoor\Official Project\G4-TaToOr-SE1504-SP22 Official\node_modules\summernote\built\base\module\TablePopover.js
E:\FPT\GitLab\ProjectTaToOr_S22\tatoor\Official Project\G4-TaToOr-SE1504-SP22 Official\node_modules\summernote\built\base\module\TablePopover.js.map
E:\FPT\GitLab\ProjectTaToOr_S22\tatoor\Official Project\G4-TaToOr-SE1504-SP22 Official\node_modules\summernote\built\base\module\Toolbar.js
E:\FPT\GitLab\ProjectTaToOr_S22\tatoor\Official Project\G4-TaToOr-SE1504-SP22 Official\node_modules\summernote\built\base\module\Toolbar.js.map
E:\FPT\GitLab\ProjectTaToOr_S22\tatoor\Official Project\G4-TaToOr-SE1504-SP22 Official\node_modules\summernote\built\base\module\VideoDialog.js
E:\FPT\GitLab\ProjectTaToOr_S22\tatoor\Official Project\G4-TaToOr-SE1504-SP22 Official\node_modules\summernote\built\base\module\VideoDialog.js.map
E:\FPT\GitLab\ProjectTaToOr_S22\tatoor\Official Project\G4-TaToOr-SE1504-SP22 Official\node_modules\summernote\built\bs3\settings.js
E:\FPT\GitLab\ProjectTaToOr_S22\tatoor\Official Project\G4-TaToOr-SE1504-SP22 Official\node_modules\summernote\built\bs3\settings.js.map
E:\FPT\GitLab\ProjectTaToOr_S22\tatoor\Official Project\G4-TaToOr-SE1504-SP22 Official\node_modules\summernote\built\bs3\ui.js
E:\FPT\GitLab\ProjectTaToOr_S22\tatoor\Official Project\G4-TaToOr-SE1504-SP22 Official\node_modules\summernote\built\bs3\ui.js.map
E:\FPT\GitLab\ProjectTaToOr_S22\tatoor\Official Project\G4-TaToOr-SE1504-SP22 Official\node_modules\summernote\built\bs4\settings.js
E:\FPT\GitLab\ProjectTaToOr_S22\tatoor\Official Project\G4-TaToOr-SE1504-SP22 Official\node_modules\summernote\built\bs4\settings.js.map
E:\FPT\GitLab\ProjectTaToOr_S22\tatoor\Official Project\G4-TaToOr-SE1504-SP22 Official\node_modules\summernote\built\bs4\ui.js
E:\FPT\GitLab\ProjectTaToOr_S22\tatoor\Official Project\G4-TaToOr-SE1504-SP22 Official\node_modules\summernote\built\bs4\ui.js.map
E:\FPT\GitLab\ProjectTaToOr_S22\tatoor\Official Project\G4-TaToOr-SE1504-SP22 Official\node_modules\summernote\built\lite\settings.js
E:\FPT\GitLab\ProjectTaToOr_S22\tatoor\Official Project\G4-TaToOr-SE1504-SP22 Official\node_modules\summernote\built\lite\settings.js.map
E:\FPT\GitLab\ProjectTaToOr_S22\tatoor\Official Project\G4-TaToOr-SE1504-SP22 Official\node_modules\summernote\built\lite\ui.js
E:\FPT\GitLab\ProjectTaToOr_S22\tatoor\Official Project\G4-TaToOr-SE1504-SP22 Official\node_modules\summernote\built\lite\ui.js.map
E:\FPT\GitLab\ProjectTaToOr_S22\tatoor\Official Project\G4-TaToOr-SE1504-SP22 Official\node_modules\summernote\built\lite\ui\DropdownUI.js
E:\FPT\GitLab\ProjectTaToOr_S22\tatoor\Official Project\G4-TaToOr-SE1504-SP22 Official\node_modules\summernote\built\lite\ui\DropdownUI.js.map
E:\FPT\GitLab\ProjectTaToOr_S22\tatoor\Official Project\G4-TaToOr-SE1504-SP22 Official\node_modules\summernote\built\lite\ui\ModalUI.js
E:\FPT\GitLab\ProjectTaToOr_S22\tatoor\Official Project\G4-TaToOr-SE1504-SP22 Official\node_modules\summernote\built\lite\ui\ModalUI.js.map
E:\FPT\GitLab\ProjectTaToOr_S22\tatoor\Official Project\G4-TaToOr-SE1504-SP22 Official\node_modules\summernote\built\lite\ui\PopoverUI.js
E:\FPT\GitLab\ProjectTaToOr_S22\tatoor\Official Project\G4-TaToOr-SE1504-SP22 Official\node_modules\summernote\built\lite\ui\PopoverUI.js.map
E:\FPT\GitLab\ProjectTaToOr_S22\tatoor\Official Project\G4-TaToOr-SE1504-SP22 Official\node_modules\summernote\built\lite\ui\TooltipUI.js
E:\FPT\GitLab\ProjectTaToOr_S22\tatoor\Official Project\G4-TaToOr-SE1504-SP22 Official\node_modules\summernote\built\lite\ui\TooltipUI.js.map
