D:\Official Project\G4-TaToOr-SE1504-SP22 Official\node_modules\summernote\built\summernote.js
D:\Official Project\G4-TaToOr-SE1504-SP22 Official\node_modules\summernote\built\summernote.js.map
D:\Official Project\G4-TaToOr-SE1504-SP22 Official\node_modules\summernote\built\base\Context.js
D:\Official Project\G4-TaToOr-SE1504-SP22 Official\node_modules\summernote\built\base\Context.js.map
D:\Official Project\G4-TaToOr-SE1504-SP22 Official\node_modules\summernote\built\base\renderer.js
D:\Official Project\G4-TaToOr-SE1504-SP22 Official\node_modules\summernote\built\base\renderer.js.map
D:\Official Project\G4-TaToOr-SE1504-SP22 Official\node_modules\summernote\built\base\summernote-en-US.js
D:\Official Project\G4-TaToOr-SE1504-SP22 Official\node_modules\summernote\built\base\summernote-en-US.js.map
D:\Official Project\G4-TaToOr-SE1504-SP22 Official\node_modules\summernote\built\base\core\async.js
D:\Official Project\G4-TaToOr-SE1504-SP22 Official\node_modules\summernote\built\base\core\async.js.map
D:\Official Project\G4-TaToOr-SE1504-SP22 Official\node_modules\summernote\built\base\core\dom.js
D:\Official Project\G4-TaToOr-SE1504-SP22 Official\node_modules\summernote\built\base\core\dom.js.map
D:\Official Project\G4-TaToOr-SE1504-SP22 Official\node_modules\summernote\built\base\core\env.js
D:\Official Project\G4-TaToOr-SE1504-SP22 Official\node_modules\summernote\built\base\core\env.js.map
D:\Official Project\G4-TaToOr-SE1504-SP22 Official\node_modules\summernote\built\base\core\func.js
D:\Official Project\G4-TaToOr-SE1504-SP22 Official\node_modules\summernote\built\base\core\func.js.map
D:\Official Project\G4-TaToOr-SE1504-SP22 Official\node_modules\summernote\built\base\core\key.js
D:\Official Project\G4-TaToOr-SE1504-SP22 Official\node_modules\summernote\built\base\core\key.js.map
D:\Official Project\G4-TaToOr-SE1504-SP22 Official\node_modules\summernote\built\base\core\lists.js
D:\Official Project\G4-TaToOr-SE1504-SP22 Official\node_modules\summernote\built\base\core\lists.js.map
D:\Official Project\G4-TaToOr-SE1504-SP22 Official\node_modules\summernote\built\base\core\range.js
D:\Official Project\G4-TaToOr-SE1504-SP22 Official\node_modules\summernote\built\base\core\range.js.map
D:\Official Project\G4-TaToOr-SE1504-SP22 Official\node_modules\summernote\built\base\editing\Bullet.js
D:\Official Project\G4-TaToOr-SE1504-SP22 Official\node_modules\summernote\built\base\editing\Bullet.js.map
D:\Official Project\G4-TaToOr-SE1504-SP22 Official\node_modules\summernote\built\base\editing\History.js
D:\Official Project\G4-TaToOr-SE1504-SP22 Official\node_modules\summernote\built\base\editing\History.js.map
D:\Official Project\G4-TaToOr-SE1504-SP22 Official\node_modules\summernote\built\base\editing\Style.js
D:\Official Project\G4-TaToOr-SE1504-SP22 Official\node_modules\summernote\built\base\editing\Style.js.map
D:\Official Project\G4-TaToOr-SE1504-SP22 Official\node_modules\summernote\built\base\editing\Table.js
D:\Official Project\G4-TaToOr-SE1504-SP22 Official\node_modules\summernote\built\base\editing\Table.js.map
D:\Official Project\G4-TaToOr-SE1504-SP22 Official\node_modules\summernote\built\base\editing\Typing.js
D:\Official Project\G4-TaToOr-SE1504-SP22 Official\node_modules\summernote\built\base\editing\Typing.js.map
D:\Official Project\G4-TaToOr-SE1504-SP22 Official\node_modules\summernote\built\base\module\AirPopover.js
D:\Official Project\G4-TaToOr-SE1504-SP22 Official\node_modules\summernote\built\base\module\AirPopover.js.map
D:\Official Project\G4-TaToOr-SE1504-SP22 Official\node_modules\summernote\built\base\module\AutoLink.js
D:\Official Project\G4-TaToOr-SE1504-SP22 Official\node_modules\summernote\built\base\module\AutoLink.js.map
D:\Official Project\G4-TaToOr-SE1504-SP22 Official\node_modules\summernote\built\base\module\AutoSync.js
D:\Official Project\G4-TaToOr-SE1504-SP22 Official\node_modules\summernote\built\base\module\AutoSync.js.map
D:\Official Project\G4-TaToOr-SE1504-SP22 Official\node_modules\summernote\built\base\module\Buttons.js
D:\Official Project\G4-TaToOr-SE1504-SP22 Official\node_modules\summernote\built\base\module\Buttons.js.map
D:\Official Project\G4-TaToOr-SE1504-SP22 Official\node_modules\summernote\built\base\module\Clipboard.js
D:\Official Project\G4-TaToOr-SE1504-SP22 Official\node_modules\summernote\built\base\module\Clipboard.js.map
D:\Official Project\G4-TaToOr-SE1504-SP22 Official\node_modules\summernote\built\base\module\Codeview.js
D:\Official Project\G4-TaToOr-SE1504-SP22 Official\node_modules\summernote\built\base\module\Codeview.js.map
D:\Official Project\G4-TaToOr-SE1504-SP22 Official\node_modules\summernote\built\base\module\Dropzone.js
D:\Official Project\G4-TaToOr-SE1504-SP22 Official\node_modules\summernote\built\base\module\Dropzone.js.map
D:\Official Project\G4-TaToOr-SE1504-SP22 Official\node_modules\summernote\built\base\module\Editor.js
D:\Official Project\G4-TaToOr-SE1504-SP22 Official\node_modules\summernote\built\base\module\Editor.js.map
D:\Official Project\G4-TaToOr-SE1504-SP22 Official\node_modules\summernote\built\base\module\Fullscreen.js
D:\Official Project\G4-TaToOr-SE1504-SP22 Official\node_modules\summernote\built\base\module\Fullscreen.js.map
D:\Official Project\G4-TaToOr-SE1504-SP22 Official\node_modules\summernote\built\base\module\Handle.js
D:\Official Project\G4-TaToOr-SE1504-SP22 Official\node_modules\summernote\built\base\module\Handle.js.map
D:\Official Project\G4-TaToOr-SE1504-SP22 Official\node_modules\summernote\built\base\module\HelpDialog.js
D:\Official Project\G4-TaToOr-SE1504-SP22 Official\node_modules\summernote\built\base\module\HelpDialog.js.map
D:\Official Project\G4-TaToOr-SE1504-SP22 Official\node_modules\summernote\built\base\module\HintPopover.js
D:\Official Project\G4-TaToOr-SE1504-SP22 Official\node_modules\summernote\built\base\module\HintPopover.js.map
D:\Official Project\G4-TaToOr-SE1504-SP22 Official\node_modules\summernote\built\base\module\ImageDialog.js
D:\Official Project\G4-TaToOr-SE1504-SP22 Official\node_modules\summernote\built\base\module\ImageDialog.js.map
D:\Official Project\G4-TaToOr-SE1504-SP22 Official\node_modules\summernote\built\base\module\ImagePopover.js
D:\Official Project\G4-TaToOr-SE1504-SP22 Official\node_modules\summernote\built\base\module\ImagePopover.js.map
D:\Official Project\G4-TaToOr-SE1504-SP22 Official\node_modules\summernote\built\base\module\LinkDialog.js
D:\Official Project\G4-TaToOr-SE1504-SP22 Official\node_modules\summernote\built\base\module\LinkDialog.js.map
D:\Official Project\G4-TaToOr-SE1504-SP22 Official\node_modules\summernote\built\base\module\LinkPopover.js
D:\Official Project\G4-TaToOr-SE1504-SP22 Official\node_modules\summernote\built\base\module\LinkPopover.js.map
D:\Official Project\G4-TaToOr-SE1504-SP22 Official\node_modules\summernote\built\base\module\Placeholder.js
D:\Official Project\G4-TaToOr-SE1504-SP22 Official\node_modules\summernote\built\base\module\Placeholder.js.map
D:\Official Project\G4-TaToOr-SE1504-SP22 Official\node_modules\summernote\built\base\module\Statusbar.js
D:\Official Project\G4-TaToOr-SE1504-SP22 Official\node_modules\summernote\built\base\module\Statusbar.js.map
D:\Official Project\G4-TaToOr-SE1504-SP22 Official\node_modules\summernote\built\base\module\TablePopover.js
D:\Official Project\G4-TaToOr-SE1504-SP22 Official\node_modules\summernote\built\base\module\TablePopover.js.map
D:\Official Project\G4-TaToOr-SE1504-SP22 Official\node_modules\summernote\built\base\module\Toolbar.js
D:\Official Project\G4-TaToOr-SE1504-SP22 Official\node_modules\summernote\built\base\module\Toolbar.js.map
D:\Official Project\G4-TaToOr-SE1504-SP22 Official\node_modules\summernote\built\base\module\VideoDialog.js
D:\Official Project\G4-TaToOr-SE1504-SP22 Official\node_modules\summernote\built\base\module\VideoDialog.js.map
D:\Official Project\G4-TaToOr-SE1504-SP22 Official\node_modules\summernote\built\bs3\settings.js
D:\Official Project\G4-TaToOr-SE1504-SP22 Official\node_modules\summernote\built\bs3\settings.js.map
D:\Official Project\G4-TaToOr-SE1504-SP22 Official\node_modules\summernote\built\bs3\ui.js
D:\Official Project\G4-TaToOr-SE1504-SP22 Official\node_modules\summernote\built\bs3\ui.js.map
D:\Official Project\G4-TaToOr-SE1504-SP22 Official\node_modules\summernote\built\bs4\settings.js
D:\Official Project\G4-TaToOr-SE1504-SP22 Official\node_modules\summernote\built\bs4\settings.js.map
D:\Official Project\G4-TaToOr-SE1504-SP22 Official\node_modules\summernote\built\bs4\ui.js
D:\Official Project\G4-TaToOr-SE1504-SP22 Official\node_modules\summernote\built\bs4\ui.js.map
D:\Official Project\G4-TaToOr-SE1504-SP22 Official\node_modules\summernote\built\lite\settings.js
D:\Official Project\G4-TaToOr-SE1504-SP22 Official\node_modules\summernote\built\lite\settings.js.map
D:\Official Project\G4-TaToOr-SE1504-SP22 Official\node_modules\summernote\built\lite\ui.js
D:\Official Project\G4-TaToOr-SE1504-SP22 Official\node_modules\summernote\built\lite\ui.js.map
D:\Official Project\G4-TaToOr-SE1504-SP22 Official\node_modules\summernote\built\lite\ui\DropdownUI.js
D:\Official Project\G4-TaToOr-SE1504-SP22 Official\node_modules\summernote\built\lite\ui\DropdownUI.js.map
D:\Official Project\G4-TaToOr-SE1504-SP22 Official\node_modules\summernote\built\lite\ui\ModalUI.js
D:\Official Project\G4-TaToOr-SE1504-SP22 Official\node_modules\summernote\built\lite\ui\ModalUI.js.map
D:\Official Project\G4-TaToOr-SE1504-SP22 Official\node_modules\summernote\built\lite\ui\PopoverUI.js
D:\Official Project\G4-TaToOr-SE1504-SP22 Official\node_modules\summernote\built\lite\ui\PopoverUI.js.map
D:\Official Project\G4-TaToOr-SE1504-SP22 Official\node_modules\summernote\built\lite\ui\TooltipUI.js
D:\Official Project\G4-TaToOr-SE1504-SP22 Official\node_modules\summernote\built\lite\ui\TooltipUI.js.map
